Senario Name,Test Name,Method Name,Browser Name,Os Name,Test Status,Test Data Row,Link to Screen Shot,Error Log,Type
CreateSEMSubscriptionsTest,Create_SEM_GroupOverview,loginWithValidCredentials,firefox,Windows,Pass,DR1, ," ",Regression
CreateSEMSubscriptionsTest,Create_SEM_GroupOverview,Create_SEM_GroupOverview,firefox,Windows,Pass,SEM_GroupOverview, ," ",Regression
CreateSEMSubscriptionsTest,Create_SEM_GroupOverview,logoutValidations,firefox,Windows,Pass,DR1, ," ",Regression
CreateSEMSubscriptionsTest,Create_SEM_AdvertiserOverview,loginWithValidCredentials,firefox,Windows,Pass,DR1, ," ",Regression
CreateSEMSubscriptionsTest,Create_SEM_AdvertiserOverview,Create_SEM_AdvertiserOverview,firefox,Windows,Pass,SEM_AdvertiserOverview, ," ",Regression
CreateSEMSubscriptionsTest,Create_SEM_AdvertiserOverview,logoutValidations,firefox,Windows,Pass,DR1, ," ",Regression
CreateSEMSubscriptionsTest,Create_SEM_AdvertiserComparison,loginWithValidCredentials,firefox,Windows,Pass,DR1, ," ",Regression
CreateSEMSubscriptionsTest,Create_SEM_AdvertiserComparison,Create_SEM_AdvertiserComparison,firefox,Windows,Pass,SEM_AdvertiserComparison, ," ",Regression
CreateSEMSubscriptionsTest,Create_SEM_AdvertiserComparison,logoutValidations,firefox,Windows,Pass,DR1, ," ",Regression
CreateSEMSubscriptionsTest,Create_SEM_PPCvsNatural,loginWithValidCredentials,firefox,Windows,Pass,DR1, ," ",Regression
CreateSEMSubscriptionsTest,Create_SEM_PPCvsNatural,Create_SEM_PPCvsNatural,firefox,Windows,Pass,SEM_PPCvsNatural, ," ",Regression
CreateSEMSubscriptionsTest,Create_SEM_PPCvsNatural,logoutValidations,firefox,Windows,Pass,DR1, ," ",Regression
CreateSEMSubscriptionsTest,Create_SEM_KeywordOverview,loginWithValidCredentials,firefox,Windows,Pass,DR1, ," ",Regression
CreateSEMSubscriptionsTest,Create_SEM_KeywordOverview,Create_SEM_KeywordOverview,firefox,Windows,Fail,SEM_KeywordOverview,file://C:/Users/ndorepalli/git/Adgooroo_I3B/ScreenShots/CreateSEMSubscriptionsTest_Create_SEM_KeywordOverview_Create_SEM_KeywordOverview_Windows_firefox.png,"java.lang.AssertionError: Test case failed due to exception Unable to locate element: //label[@for='root_keyword']/following-sibling::div//child::span[@class='Select-value-label'] For documentation on this error  please visit: http://seleniumhq.org/exceptions/no_such_element.html Build info: version: '3.5.3'  revision: 'a88d25fe6b'  time: '2017-08-29T12:42:44.417Z' System info: host: 'IM-LP-595'  ip: '10.68.1.100'  os.name: 'Windows 7'  os.arch: 'amd64'  os.version: '6.1'  java.version: '1.8.0_121' Driver info: org.openqa.selenium.firefox.FirefoxDriver Capabilities [{moz:profile=C:\Users\ndorepalli\AppData\Local\Temp\rust_mozprofile.Mk6uN7rFe7wF  rotatable=false  timeouts={implicit=0  pageLoad=300000  script=30000}  pageLoadStrategy=normal  moz:headless=false  platform=XP  moz:accessibilityChecks=false  acceptInsecureCerts=true  browserVersion=57.0  platformVersion=6.1  moz:processID=13588  browserName=firefox  javascriptEnabled=true  platformName=XP  moz:webdriverClick=false}] Session ID: e9ee41d7-4975-4c99-9566-f7965cfff656 *** Element info: {Using=xpath  value=//label[@for='root_keyword']/following-sibling::div//child::span[@class='Select-value-label']} expected [true] but found [false]",Regression
CreateSEMSubscriptionsTest,Create_SEM_KeywordOverview,logoutValidations,firefox,Windows,Pass,DR1, ," ",Regression
CreatePLASubscriptionsTest,Create_PLA_KeywordResearch,loginWithValidCredentials,firefox,Windows,Pass,DR1, ," ",Regression
CreatePLASubscriptionsTest,Create_PLA_KeywordResearch,Create_PLA_KeywordResearch,firefox,Windows,Pass,PLA_KeywordResearch, ," ",Regression
CreatePLASubscriptionsTest,Create_PLA_KeywordResearch,logoutValidations,firefox,Windows,Pass,DR1, ," ",Regression
CreatePLASubscriptionsTest,Create_PLA_Groupoverview,loginWithValidCredentials,firefox,Windows,Pass,DR1, ," ",Regression
CreatePLASubscriptionsTest,Create_PLA_Groupoverview,Create_PLA_Groupoverview,firefox,Windows,Pass,PLA_GroupOverview, ," ",Regression
CreatePLASubscriptionsTest,Create_PLA_Groupoverview,logoutValidations,firefox,Windows,Pass,DR1, ," ",Regression
CreatePLASubscriptionsTest,Create_PLA_Advertiserkeywords,loginWithValidCredentials,firefox,Windows,Pass,DR1, ," ",Regression
CreatePLASubscriptionsTest,Create_PLA_Advertiserkeywords,Create_PLA_Advertiserkeywords,firefox,Windows,Pass,PLA_Advertiserkeywords, ," ",Regression
CreatePLASubscriptionsTest,Create_PLA_Advertiserkeywords,logoutValidations,firefox,Windows,Pass,DR1, ," ",Regression
CreatePLASubscriptionsTest,Create_PLA_Keywordcomparison,loginWithValidCredentials,firefox,Windows,Pass,DR1, ," ",Regression
CreatePLASubscriptionsTest,Create_PLA_Keywordcomparison,Create_PLA_Keywordcomparison,firefox,Windows,Pass,PLA_Keywordcomparison, ," ",Regression
CreatePLASubscriptionsTest,Create_PLA_Keywordcomparison,logoutValidations,firefox,Windows,Pass,DR1, ," ",Regression
CreatePLASubscriptionsTest,Create_PLA_Keywordadvertisers,loginWithValidCredentials,firefox,Windows,Pass,DR1, ," ",Regression
CreatePLASubscriptionsTest,Create_PLA_Keywordadvertisers,Create_PLA_Keywordadvertisers,firefox,Windows,Pass,PLA_Keywordadvertisers, ," ",Regression
CreatePLASubscriptionsTest,Create_PLA_Keywordadvertisers,logoutValidations,firefox,Windows,Pass,DR1, ," ",Regression
CreateLocalSubscriptionsTest,Create_Local_MultiCityOverview,loginWithValidCredentials,firefox,Windows,Pass,DR1, ," ",Regression
CreateLocalSubscriptionsTest,Create_Local_MultiCityOverview,Create_Local_MultiCityOverview,firefox,Windows,Pass,Local_MultiCityOverview, ," ",Regression
CreateLocalSubscriptionsTest,Create_Local_MultiCityOverview,logoutValidations,firefox,Windows,Pass,DR1, ," ",Regression
CreateLocalSubscriptionsTest,Create_Local_MultiCityAdvertisers,loginWithValidCredentials,firefox,Windows,Pass,DR1, ," ",Regression
CreateLocalSubscriptionsTest,Create_Local_MultiCityAdvertisers,Create_Local_MultiCityAdvertisers,firefox,Windows,Pass,Local_MultiCityAdvertisers, ," ",Regression
CreateLocalSubscriptionsTest,Create_Local_MultiCityAdvertisers,logoutValidations,firefox,Windows,Pass,DR1, ," ",Regression
CreateLocalSubscriptionsTest,Create_Local_KeywordOpportunities,loginWithValidCredentials,firefox,Windows,Pass,DR1, ," ",Regression
CreateLocalSubscriptionsTest,Create_Local_KeywordOpportunities,Create_Local_KeywordOpportunities,firefox,Windows,Pass,Local_KeywordOpportunities, ," ",Regression
CreateLocalSubscriptionsTest,Create_Local_KeywordOpportunities,logoutValidations,firefox,Windows,Pass,DR1, ," ",Regression
CreateLocalSubscriptionsTest,Create_Local_AdvertiserComparison,loginWithValidCredentials,firefox,Windows,Pass,DR1, ," ",Regression
CreateLocalSubscriptionsTest,Create_Local_AdvertiserComparison,Create_Local_AdvertiserComparison,firefox,Windows,Pass,Local_AdvertiserComparison, ," ",Regression
CreateLocalSubscriptionsTest,Create_Local_AdvertiserComparison,logoutValidations,firefox,Windows,Pass,DR1, ," ",Regression
CreateLocalSubscriptionsTest,Create_Local_KeywordCreative,loginWithValidCredentials,firefox,Windows,Pass,DR1, ," ",Regression
CreateLocalSubscriptionsTest,Create_Local_KeywordCreative,Create_Local_KeywordCreative,firefox,Windows,Fail,Local_KeywordCreative,file://C:/Users/ndorepalli/git/Adgooroo_I3B/ScreenShots/CreateLocalSubscriptionsTest_Create_Local_KeywordCreative_Create_Local_KeywordCreative_Windows_firefox.png,"java.lang.AssertionError: expected [true] but found [false]",Regression
CreateLocalSubscriptionsTest,Create_Local_KeywordCreative,logoutValidations,firefox,Windows,Pass,DR1, ," ",Regression
CreateTMSubscriptionsTest,Create_TM_GroupInfringementsbyAdvertiser,loginWithValidCredentials,firefox,Windows,Pass,DR1, ," ",Regression
CreateTMSubscriptionsTest,Create_TM_GroupInfringementsbyAdvertiser,Create_TM_GroupInfringementsbyAdvertiser,firefox,Windows,Pass,TM_GroupInfringementsbyAdvertiser, ," ",Regression
CreateTMSubscriptionsTest,Create_TM_GroupInfringementsbyAdvertiser,logoutValidations,firefox,Windows,Pass,DR1, ," ",Regression
CreateTMSubscriptionsTest,Create_TM_GlobalBrandOverview,loginWithValidCredentials,firefox,Windows,Pass,DR1, ," ",Regression
CreateTMSubscriptionsTest,Create_TM_GlobalBrandOverview,Create_TM_GlobalBrandOverview,firefox,Windows,Pass,TM_GlobalBrandOverview, ," ",Regression
CreateTMSubscriptionsTest,Create_TM_GlobalBrandOverview,logoutValidations,firefox,Windows,Pass,DR1, ," ",Regression
CreateTMSubscriptionsTest,Create_TM_KeywordOverviewbyBidding,loginWithValidCredentials,firefox,Windows,Pass,DR1, ," ",Regression
CreateTMSubscriptionsTest,Create_TM_KeywordOverviewbyBidding,Create_TM_KeywordOverviewbyBidding,firefox,Windows,Pass,TM_KeywordOverviewbyBidding, ," ",Regression
CreateTMSubscriptionsTest,Create_TM_KeywordOverviewbyBidding,logoutValidations,firefox,Windows,Pass,DR1, ," ",Regression
CreateTMSubscriptionsTest,Create_TM_HijackedURL,loginWithValidCredentials,firefox,Windows,Pass,DR1, ," ",Regression
CreateTMSubscriptionsTest,Create_TM_HijackedURL,Create_TM_HijackedURL,firefox,Windows,Fail,TM_HijackedURL,file://C:/Users/ndorepalli/git/Adgooroo_I3B/ScreenShots/CreateTMSubscriptionsTest_Create_TM_HijackedURL_Create_TM_HijackedURL_Windows_firefox.png,"java.lang.AssertionError: Test case failed due to exception Unable to locate element: .toastify__body For documentation on this error  please visit: http://seleniumhq.org/exceptions/no_such_element.html Build info: version: '3.5.3'  revision: 'a88d25fe6b'  time: '2017-08-29T12:42:44.417Z' System info: host: 'IM-LP-595'  ip: '10.68.1.100'  os.name: 'Windows 7'  os.arch: 'amd64'  os.version: '6.1'  java.version: '1.8.0_121' Driver info: org.openqa.selenium.firefox.FirefoxDriver Capabilities [{moz:profile=C:\Users\ndorepalli\AppData\Local\Temp\rust_mozprofile.AByAwjUZd5UA  rotatable=false  timeouts={implicit=0  pageLoad=300000  script=30000}  pageLoadStrategy=normal  moz:headless=false  platform=XP  moz:accessibilityChecks=false  acceptInsecureCerts=true  browserVersion=57.0  platformVersion=6.1  moz:processID=2332  browserName=firefox  javascriptEnabled=true  platformName=XP  moz:webdriverClick=false}] Session ID: e85da8b8-0b3d-4b14-a418-c7642e1aa6ac *** Element info: {Using=class name  value=toastify__body} expected [true] but found [false]",Regression
CreateTMSubscriptionsTest,Create_TM_HijackedURL,logoutValidations,firefox,Windows,Pass,DR1, ," ",Regression
CreateIndustryPPCSubscriptionsTest,Create_Industry_PPC_IndustryOverview,loginWithValidCredentials,firefox,Windows,Pass,DR1, ," ",Regression
CreateIndustryPPCSubscriptionsTest,Create_Industry_PPC_IndustryOverview,Create_Industry_PPC_IndustryOverview,firefox,Windows,Pass,Industry_PPC_IndustryOverview, ," ",Regression
CreateIndustryPPCSubscriptionsTest,Create_Industry_PPC_IndustryOverview,logoutValidations,firefox,Windows,Pass,DR1, ," ",Regression
CreateIndustryPPCSubscriptionsTest,Create_Industry_PPC_AdvertiserOverview,loginWithValidCredentials,firefox,Windows,Pass,DR1, ," ",Regression
CreateIndustryPPCSubscriptionsTest,Create_Industry_PPC_AdvertiserOverview,Create_Industry_PPC_AdvertiserOverview,firefox,Windows,Pass,Industry_PPC_AdvertiserOverview, ," ",Regression
CreateIndustryPPCSubscriptionsTest,Create_Industry_PPC_AdvertiserOverview,logoutValidations,firefox,Windows,Pass,DR1, ," ",Regression
CreateIndustryPPCSubscriptionsTest,Create_Industry_PPC_KeywordComparison,loginWithValidCredentials,firefox,Windows,Pass,DR1, ," ",Regression
CreateIndustryPPCSubscriptionsTest,Create_Industry_PPC_KeywordComparison,Create_Industry_PPC_KeywordComparison,firefox,Windows,Pass,Industry_PPC_KeywordComparison, ," ",Regression
CreateIndustryPPCSubscriptionsTest,Create_Industry_PPC_KeywordComparison,logoutValidations,firefox,Windows,Pass,DR1, ," ",Regression
CreateIndustrySEOSubscriptionsTest,Create_Industry_Industryoverview,loginWithValidCredentials,firefox,Windows,Pass,DR1, ," ",Regression
CreateIndustrySEOSubscriptionsTest,Create_Industry_Industryoverview,Create_Industry_Industryoverview,firefox,Windows,Pass,Industry_Industryoverview, ," ",Regression
CreateIndustrySEOSubscriptionsTest,Create_Industry_Industryoverview,logoutValidations,firefox,Windows,Pass,DR1, ," ",Regression
CreateIndustrySEOSubscriptionsTest,Create_Industry_Advertiseroverview,loginWithValidCredentials,firefox,Windows,Pass,DR1, ," ",Regression
CreateIndustrySEOSubscriptionsTest,Create_Industry_Advertiseroverview,Create_Industry_Advertiseroverview,firefox,Windows,Pass,Industry_Advertiseroverview, ," ",Regression
CreateIndustrySEOSubscriptionsTest,Create_Industry_Advertiseroverview,logoutValidations,firefox,Windows,Pass,DR1, ," ",Regression
CreateIndustrySEOSubscriptionsTest,Create_Industry_Advertisercomparison,loginWithValidCredentials,firefox,Windows,Pass,DR1, ," ",Regression
CreateIndustrySEOSubscriptionsTest,Create_Industry_Advertisercomparison,Create_Industry_Advertisercomparison,firefox,Windows,Pass,Industry_Advertisercomparison, ," ",Regression
CreateIndustrySEOSubscriptionsTest,Create_Industry_Advertisercomparison,logoutValidations,firefox,Windows,Pass,DR1, ," ",Regression
CreateIndustrySEOSubscriptionsTest,Create_Industry_Keywordrankings,loginWithValidCredentials,firefox,Windows,Pass,DR1, ," ",Regression
CreateIndustrySEOSubscriptionsTest,Create_Industry_Keywordrankings,Create_Industry_Keywordrankings,firefox,Windows,Pass,Industry_Keywordrankings, ," ",Regression
CreateIndustrySEOSubscriptionsTest,Create_Industry_Keywordrankings,logoutValidations,firefox,Windows,Pass,DR1, ," ",Regression
