Senario Name,Test Name,Method Name,Browser Name,Os Name,Test Status,Test Data Row,Link to Screen Shot,Error Log,Type
CreateSEMSubscriptionsTest,Create_SEM_AdvertiserOverview,loginWithValidCredentials,firefox,Windows,Pass,DR1, ," ",Regression
CreateSEMSubscriptionsTest,Create_SEM_AdvertiserOverview,Create_SEM_AdvertiserOverview,firefox,Windows,Pass,SEM_AdvertiserOverview, ," ",Regression
CreateSEMSubscriptionsTest,Create_SEM_AdvertiserOverview,logoutValidations,firefox,Windows,Pass,DR1, ," ",Regression
