Senario Name,Test Name,Method Name,Browser Name,Os Name,Test Status,Test Data Row,Link to Screen Shot,Error Log,Type
CreateSEMSubscriptionsTest,Create_SEM_KeywordOverview,loginWithValidCredentials,firefox,Windows,Pass,DR1, ," ",Regression
CreateSEMSubscriptionsTest,Create_SEM_KeywordOverview,Create_SEM_KeywordOverview,firefox,Windows,Fail,SEM_KeywordOverview,file://C:/Users/ndorepalli/git/Adgooroo_I3B/ScreenShots/CreateSEMSubscriptionsTest_Create_SEM_KeywordOverview_Create_SEM_KeywordOverview_Windows_firefox.png,"java.lang.AssertionError: Test case failed due to exception Unable to locate element: //div[@role='option' and text()='1366 mother'] For documentation on this error  please visit: http://seleniumhq.org/exceptions/no_such_element.html Build info: version: '3.5.3'  revision: 'a88d25fe6b'  time: '2017-08-29T12:42:44.417Z' System info: host: 'IM-LP-595'  ip: '10.68.1.100'  os.name: 'Windows 7'  os.arch: 'amd64'  os.version: '6.1'  java.version: '1.8.0_121' Driver info: org.openqa.selenium.firefox.FirefoxDriver Capabilities [{moz:profile=C:\Users\ndorepalli\AppData\Local\Temp\rust_mozprofile.WYbbiuPCU3qv  rotatable=false  timeouts={implicit=0  pageLoad=300000  script=30000}  pageLoadStrategy=normal  moz:headless=false  platform=XP  moz:accessibilityChecks=false  acceptInsecureCerts=true  browserVersion=57.0  platformVersion=6.1  moz:processID=11032  browserName=firefox  javascriptEnabled=true  platformName=XP  moz:webdriverClick=false}] Session ID: 11b3f000-d499-43b6-9286-ef2ea957d722 *** Element info: {Using=xpath  value=//div[@role='option' and text()='1366 mother']} expected [true] but found [false]",Regression
CreateSEMSubscriptionsTest,Create_SEM_KeywordOverview,logoutValidations,firefox,Windows,Pass,DR1, ," ",Regression
