Senario Name,Test Name,Method Name,Browser Name,Os Name,Test Status,Test Data Row,Link to Screen Shot,Error Log,Type
HealthCheckTests,CreatePerformanceComparisonAlertTest,loginWithValidCredentials,chrome,Windows,Pass,DR1, ," ",Regression
HealthCheckTests,CreatePerformanceComparisonAlertTest,navigateToAlertManager,chrome,Windows,Pass, , ," ",Regression
