Senario Name,Test Name,Method Name,Browser Name,Os Name,Test Status,Test Data Row,Link to Screen Shot,Error Log,Type
CreateLocalSubscriptionsTest,Create_Local_AdvertiserComparison,loginWithValidCredentials,firefox,Windows,Pass,DR1, ," ",Regression
CreateLocalSubscriptionsTest,Create_Local_MultiCityKeywords,loginWithValidCredentials,firefox,Windows,Pass,DR1, ," ",Regression
CreateLocalSubscriptionsTest,Create_Local_MultiCityKeywords,loginWithValidCredentials,firefox,Windows,Pass,DR1, ," ",Regression
CreateLocalSubscriptionsTest,Create_Local_AdvertiserComparison,Create_Local_AdvertiserComparison,firefox,Windows,Pass,Local_AdvertiserComparison, ," ",Regression
CreateLocalSubscriptionsTest,Create_Local_KeywordCreative,Create_Local_KeywordCreative,firefox,Windows,Fail,Local_KeywordCreative,file://C:/Users/ndorepalli/git/Adgooroo_I3B/ScreenShots/CreateLocalSubscriptionsTest_Create_Local_KeywordCreative_Create_Local_KeywordCreative_Windows_firefox.png,"java.lang.AssertionError: Test case failed due to exception Unable to locate element: //label[@for='root_keyword']/following-sibling::div//child::span[@class='Select-value-label'] For documentation on this error  please visit: http://seleniumhq.org/exceptions/no_such_element.html Build info: version: '3.5.3'  revision: 'a88d25fe6b'  time: '2017-08-29T12:42:44.417Z' System info: host: 'IM-LP-595'  ip: '10.68.1.100'  os.name: 'Windows 7'  os.arch: 'amd64'  os.version: '6.1'  java.version: '1.8.0_121' Driver info: org.openqa.selenium.firefox.FirefoxDriver Capabilities [{moz:profile=C:\Users\ndorepalli\AppData\Local\Temp\rust_mozprofile.dwNOtS8axd4q  rotatable=false  timeouts={implicit=0  pageLoad=300000  script=30000}  pageLoadStrategy=normal  moz:headless=false  platform=XP  moz:accessibilityChecks=false  acceptInsecureCerts=true  browserVersion=57.0  platformVersion=6.1  moz:processID=3752  browserName=firefox  javascriptEnabled=true  platformName=XP  moz:webdriverClick=false}] Session ID: e53bd214-a900-42df-9ec1-605c6945fe19 *** Element info: {Using=xpath  value=//label[@for='root_keyword']/following-sibling::div//child::span[@class='Select-value-label']} expected [true] but found [false]",Regression
CreateLocalSubscriptionsTest,Create_Local_MultiCityKeywords,Create_Local_MultiCityKeywords,firefox,Windows,Fail,Local_MultiCityKeywords,file://C:/Users/ndorepalli/git/Adgooroo_I3B/ScreenShots/CreateLocalSubscriptionsTest_Create_Local_MultiCityKeywords_Create_Local_MultiCityKeywords_Windows_firefox.png,"java.lang.AssertionError: Test case failed due to exception Unable to locate element: //label[@for='root_keyword']/following-sibling::div//child::span[@class='Select-value-label'] For documentation on this error  please visit: http://seleniumhq.org/exceptions/no_such_element.html Build info: version: '3.5.3'  revision: 'a88d25fe6b'  time: '2017-08-29T12:42:44.417Z' System info: host: 'IM-LP-595'  ip: '10.68.1.100'  os.name: 'Windows 7'  os.arch: 'amd64'  os.version: '6.1'  java.version: '1.8.0_121' Driver info: org.openqa.selenium.firefox.FirefoxDriver Capabilities [{moz:profile=C:\Users\ndorepalli\AppData\Local\Temp\rust_mozprofile.bkU19vXOfh8a  rotatable=false  timeouts={implicit=0  pageLoad=300000  script=30000}  pageLoadStrategy=normal  moz:headless=false  platform=XP  moz:accessibilityChecks=false  acceptInsecureCerts=true  browserVersion=57.0  platformVersion=6.1  moz:processID=9048  browserName=firefox  javascriptEnabled=true  platformName=XP  moz:webdriverClick=false}] Session ID: 972de1f1-3be9-495f-9d5e-e9fe29bf41fb *** Element info: {Using=xpath  value=//label[@for='root_keyword']/following-sibling::div//child::span[@class='Select-value-label']} expected [true] but found [false]",Regression
CreateLocalSubscriptionsTest,Create_Local_AdvertiserComparison,logoutValidations,firefox,Windows,Pass,DR1, ," ",Regression
CreateLocalSubscriptionsTest,Create_Local_KeywordCreative,logoutValidations,firefox,Windows,Pass,DR1, ," ",Regression
CreateLocalSubscriptionsTest,Create_Local_MultiCityKeywords,logoutValidations,firefox,Windows,Pass,DR1, ," ",Regression
CreateLocalSubscriptionsTest,Create_Local_KeywordAdvertisers,loginWithValidCredentials,firefox,Windows,Pass,DR1, ," ",Regression
CreateLocalSubscriptionsTest,Create_Local_PositionShare,loginWithValidCredentials,firefox,Windows,Pass,DR1, ," ",Regression
CreateLocalSubscriptionsTest,Create_Local_KeywordOverview,loginWithValidCredentials,firefox,Windows,Pass,DR1, ," ",Regression
CreateLocalSubscriptionsTest,Create_Local_KeywordAdvertisers,Create_Local_KeywordAdvertisers,firefox,Windows,Fail,Local_KeywordAdvertisers,file://C:/Users/ndorepalli/git/Adgooroo_I3B/ScreenShots/CreateLocalSubscriptionsTest_Create_Local_KeywordAdvertisers_Create_Local_KeywordAdvertisers_Windows_firefox.png,"java.lang.AssertionError: Test case failed due to exception Unable to locate element: //label[@for='root_keyword']/following-sibling::div//child::span[@class='Select-value-label'] For documentation on this error  please visit: http://seleniumhq.org/exceptions/no_such_element.html Build info: version: '3.5.3'  revision: 'a88d25fe6b'  time: '2017-08-29T12:42:44.417Z' System info: host: 'IM-LP-595'  ip: '10.68.1.100'  os.name: 'Windows 7'  os.arch: 'amd64'  os.version: '6.1'  java.version: '1.8.0_121' Driver info: org.openqa.selenium.firefox.FirefoxDriver Capabilities [{moz:profile=C:\Users\ndorepalli\AppData\Local\Temp\rust_mozprofile.MMBqlz9rfMhp  rotatable=false  timeouts={implicit=0  pageLoad=300000  script=30000}  pageLoadStrategy=normal  moz:headless=false  platform=XP  moz:accessibilityChecks=false  acceptInsecureCerts=true  browserVersion=57.0  platformVersion=6.1  moz:processID=13920  browserName=firefox  javascriptEnabled=true  platformName=XP  moz:webdriverClick=false}] Session ID: e1b015e3-15ee-4d45-80e4-c469651aa77c *** Element info: {Using=xpath  value=//label[@for='root_keyword']/following-sibling::div//child::span[@class='Select-value-label']} expected [true] but found [false]",Regression
CreateLocalSubscriptionsTest,Create_Local_PositionShare,Create_Local_PositionShare,firefox,Windows,Fail,Local_PositionShare,file://C:/Users/ndorepalli/git/Adgooroo_I3B/ScreenShots/CreateLocalSubscriptionsTest_Create_Local_PositionShare_Create_Local_PositionShare_Windows_firefox.png,"java.lang.AssertionError: Test case failed due to exception Unable to locate element: //label[@for='root_keyword']/following-sibling::div//child::span[@class='Select-value-label'] For documentation on this error  please visit: http://seleniumhq.org/exceptions/no_such_element.html Build info: version: '3.5.3'  revision: 'a88d25fe6b'  time: '2017-08-29T12:42:44.417Z' System info: host: 'IM-LP-595'  ip: '10.68.1.100'  os.name: 'Windows 7'  os.arch: 'amd64'  os.version: '6.1'  java.version: '1.8.0_121' Driver info: org.openqa.selenium.firefox.FirefoxDriver Capabilities [{moz:profile=C:\Users\ndorepalli\AppData\Local\Temp\rust_mozprofile.vxKDcFaZdTlP  rotatable=false  timeouts={implicit=0  pageLoad=300000  script=30000}  pageLoadStrategy=normal  moz:headless=false  platform=XP  moz:accessibilityChecks=false  acceptInsecureCerts=true  browserVersion=57.0  platformVersion=6.1  moz:processID=2872  browserName=firefox  javascriptEnabled=true  platformName=XP  moz:webdriverClick=false}] Session ID: f57531c0-9157-4267-a431-dd6e4f095ff2 *** Element info: {Using=xpath  value=//label[@for='root_keyword']/following-sibling::div//child::span[@class='Select-value-label']} expected [true] but found [false]",Regression
CreateLocalSubscriptionsTest,Create_Local_KeywordAdvertisers,logoutValidations,firefox,Windows,Pass,DR1, ," ",Regression
CreateLocalSubscriptionsTest,Create_Local_KeywordOverview,Create_Local_KeywordOverview,firefox,Windows,Fail,Local_KeywordOverview,file://C:/Users/ndorepalli/git/Adgooroo_I3B/ScreenShots/CreateLocalSubscriptionsTest_Create_Local_KeywordOverview_Create_Local_KeywordOverview_Windows_firefox.png,"java.lang.AssertionError: Test case failed due to exception Unable to locate element: //label[@for='root_keyword']/following-sibling::div//child::span[@class='Select-value-label'] For documentation on this error  please visit: http://seleniumhq.org/exceptions/no_such_element.html Build info: version: '3.5.3'  revision: 'a88d25fe6b'  time: '2017-08-29T12:42:44.417Z' System info: host: 'IM-LP-595'  ip: '10.68.1.100'  os.name: 'Windows 7'  os.arch: 'amd64'  os.version: '6.1'  java.version: '1.8.0_121' Driver info: org.openqa.selenium.firefox.FirefoxDriver Capabilities [{moz:profile=C:\Users\ndorepalli\AppData\Local\Temp\rust_mozprofile.iSLhmdYbwtKM  rotatable=false  timeouts={implicit=0  pageLoad=300000  script=30000}  pageLoadStrategy=normal  moz:headless=false  platform=XP  moz:accessibilityChecks=false  acceptInsecureCerts=true  browserVersion=57.0  platformVersion=6.1  moz:processID=16124  browserName=firefox  javascriptEnabled=true  platformName=XP  moz:webdriverClick=false}] Session ID: af8c9b08-089e-408c-b7cb-5e4af139d502 *** Element info: {Using=xpath  value=//label[@for='root_keyword']/following-sibling::div//child::span[@class='Select-value-label']} expected [true] but found [false]",Regression
CreateLocalSubscriptionsTest,Create_Local_PositionShare,logoutValidations,firefox,Windows,Pass,DR1, ," ",Regression
CreateLocalSubscriptionsTest,Create_Local_KeywordOverview,logoutValidations,firefox,Windows,Pass,DR1, ," ",Regression
