Senario Name,Test Name,Method Name,Browser Name,Os Name,Test Status,Test Data Row,Link to Screen Shot,Error Log,Type
HealthCheckTests,CreateSpecificCompetitorAlertTest,loginWithValidCredentials,chrome,Windows,Pass,DR1, ," ",Regression
HealthCheckTests,CreateSpecificCompetitorAlertTest,navigateToAlertManager,chrome,Windows,Pass, , ," ",Regression
HealthCheckTests,CreateSpecificCompetitorAlertTest,create_SpecComp_SEML_DateM_FreqW_Unchecked,chrome,Windows,Fail,SpecComp,file://C:/Users/ndorepalli/git/Edited/Adgooroo_I3B_BitBucket/ScreenShots/HealthCheckTests_CreateSpecificCompetitorAlertTest_create_SpecComp_SEML_DateM_FreqW_Unchecked_Windows_chrome.png,"java.lang.AssertionError: Test case failed due to exception no such element: Unable to locate element: {""method"":""xpath"" ""selector"":""//p[text()='For Competitor(s)']/following-sibling::div//input[@name='advertiser']""}   (Session info: chrome=68.0.3440.106)   (Driver info: chromedriver=2.38.552522 (437e6fbedfa8762dec75e2c5b3ddb86763dc9dcb) platform=Windows NT 6.1.7601 SP1 x86_64) (WARNING: The server did not provide any stacktrace information) Command duration or timeout: 0 milliseconds For documentation on this error  please visit: http://seleniumhq.org/exceptions/no_such_element.html Build info: version: '3.5.3'  revision: 'a88d25fe6b'  time: '2017-08-29T12:42:44.417Z' System info: host: 'IM-LP-595'  ip: '10.68.1.101'  os.name: 'Windows 7'  os.arch: 'amd64'  os.version: '6.1'  java.version: '1.8.0_121' Driver info: org.openqa.selenium.chrome.ChromeDriver Capabilities [{mobileEmulationEnabled=false  hasTouchScreen=false  platform=XP  acceptSslCerts=false  acceptInsecureCerts=false  webStorageEnabled=true  browserName=chrome  takesScreenshot=true  javascriptEnabled=true  platformName=XP  setWindowRect=true  unexpectedAlertBehaviour=  applicationCacheEnabled=false  rotatable=false  networkConnectionEnabled=false  chrome={chromedriverVersion=2.38.552522 (437e6fbedfa8762dec75e2c5b3ddb86763dc9dcb)  userDataDir=C:\Users\NDOREP~1\AppData\Local\Temp\scoped_dir2172_31717}  takesHeapSnapshot=true  pageLoadStrategy=normal  unhandledPromptBehavior=  databaseEnabled=false  handlesAlerts=true  version=68.0.3440.106  browserConnectionEnabled=false  nativeEvents=true  locationContextEnabled=true  cssSelectorsEnabled=true}] Session ID: f7f60d4cb7446a07bfd4685e34c897a9 *** Element info: {Using=xpath  value=//p[text()='For Competitor(s)']/following-sibling::div//input[@name='advertiser']} expected [true] but found [false]",Regression
HealthCheckTests,CreateSpecificCompetitorAlertTest,logoutValidations,chrome,Windows,Fail,DR1,file://C:/Users/ndorepalli/git/Edited/Adgooroo_I3B_BitBucket/ScreenShots/HealthCheckTests_CreateSpecificCompetitorAlertTest_logoutValidations_Windows_chrome.png,"java.lang.AssertionError: Test case failed due to exception Failed: to click WebElement element not visible   (Session info: chrome=68.0.3440.106)   (Driver info: chromedriver=2.38.552522 (437e6fbedfa8762dec75e2c5b3ddb86763dc9dcb) platform=Windows NT 6.1.7601 SP1 x86_64) (WARNING: The server did not provide any stacktrace information) Command duration or timeout: 0 milliseconds Build info: version: '3.5.3'  revision: 'a88d25fe6b'  time: '2017-08-29T12:42:44.417Z' System info: host: 'IM-LP-595'  ip: '10.68.1.101'  os.name: 'Windows 7'  os.arch: 'amd64'  os.version: '6.1'  java.version: '1.8.0_121' Driver info: org.openqa.selenium.chrome.ChromeDriver Capabilities [{mobileEmulationEnabled=false  hasTouchScreen=false  platform=XP  acceptSslCerts=false  acceptInsecureCerts=false  webStorageEnabled=true  browserName=chrome  takesScreenshot=true  javascriptEnabled=true  platformName=XP  setWindowRect=true  unexpectedAlertBehaviour=  applicationCacheEnabled=false  rotatable=false  networkConnectionEnabled=false  chrome={chromedriverVersion=2.38.552522 (437e6fbedfa8762dec75e2c5b3ddb86763dc9dcb)  userDataDir=C:\Users\NDOREP~1\AppData\Local\Temp\scoped_dir2172_31717}  takesHeapSnapshot=true  pageLoadStrategy=normal  unhandledPromptBehavior=  databaseEnabled=false  handlesAlerts=true  version=68.0.3440.106  browserConnectionEnabled=false  nativeEvents=true  locationContextEnabled=true  cssSelectorsEnabled=true}] Session ID: f7f60d4cb7446a07bfd4685e34c897a9 expected [true] but found [false]",Regression
