Senario Name,Test Name,Method Name,Browser Name,Os Name,Test Status,Test Data Row,Link to Screen Shot,Error Log,Type
CreateTMSubscriptionsTest,Create_TM_GlobalBrandOverview,loginWithValidCredentials,firefox,Windows,Pass,DR1, ," ",Regression
CreateTMSubscriptionsTest,Create_TM_GlobalBrandOverview,Create_TM_GlobalBrandOverview,firefox,Windows,Fail,TM_GlobalBrandOverview,file://C:/Users/ndorepalli/git/Adgooroo_I3B/ScreenShots/CreateTMSubscriptionsTest_Create_TM_GlobalBrandOverview_Create_TM_GlobalBrandOverview_Windows_firefox.png,"java.lang.AssertionError: Test case failed due to exception Unable to locate element: //strong[text()='Google-US'] For documentation on this error  please visit: http://seleniumhq.org/exceptions/no_such_element.html Build info: version: '3.5.3'  revision: 'a88d25fe6b'  time: '2017-08-29T12:42:44.417Z' System info: host: 'IM-LP-595'  ip: '10.68.1.100'  os.name: 'Windows 7'  os.arch: 'amd64'  os.version: '6.1'  java.version: '1.8.0_121' Driver info: org.openqa.selenium.firefox.FirefoxDriver Capabilities [{moz:profile=C:\Users\ndorepalli\AppData\Local\Temp\rust_mozprofile.NF3MuOjYldKi  rotatable=false  timeouts={implicit=0  pageLoad=300000  script=30000}  pageLoadStrategy=normal  moz:headless=false  platform=XP  moz:accessibilityChecks=false  acceptInsecureCerts=true  browserVersion=57.0  platformVersion=6.1  moz:processID=9664  browserName=firefox  javascriptEnabled=true  platformName=XP  moz:webdriverClick=false}] Session ID: b9e66a83-962d-4652-bdbb-185d53257c5a *** Element info: {Using=xpath  value=//strong[text()='Google-US']} expected [true] but found [false]",Regression
CreateTMSubscriptionsTest,Create_TM_GlobalBrandOverview,logoutValidations,firefox,Windows,Pass,DR1, ," ",Regression
