Senario Name,Test Name,Method Name,Browser Name,Os Name,Test Status,Test Data Row,Link to Screen Shot,Error Log,Type
LoginTest,loginSuite,validateLoginUI,chrome,Windows,Fail,DR1,file://C:/Users/ndorepalli/git/Adgooroo_I3B/ScreenShots/LoginTest_loginSuite_validateLoginUI_Windows_chrome.png,"java.lang.AssertionError: Test case failed due to exception chrome not reachable   (Session info: chrome=68.0.3440.106)   (Driver info: chromedriver=2.38.552522 (437e6fbedfa8762dec75e2c5b3ddb86763dc9dcb) platform=Windows NT 6.1.7601 SP1 x86_64) (WARNING: The server did not provide any stacktrace information) Command duration or timeout: 0 milliseconds Build info: version: '3.5.3'  revision: 'a88d25fe6b'  time: '2017-08-29T12:42:44.417Z' System info: host: 'IM-LP-595'  ip: '192.168.244.13'  os.name: 'Windows 7'  os.arch: 'amd64'  os.version: '6.1'  java.version: '1.8.0_121' Driver info: org.openqa.selenium.chrome.ChromeDriver Capabilities [{mobileEmulationEnabled=false  hasTouchScreen=false  platform=XP  acceptSslCerts=false  acceptInsecureCerts=false  webStorageEnabled=true  browserName=chrome  takesScreenshot=true  javascriptEnabled=true  platformName=XP  setWindowRect=true  unexpectedAlertBehaviour=  applicationCacheEnabled=false  rotatable=false  networkConnectionEnabled=false  chrome={chromedriverVersion=2.38.552522 (437e6fbedfa8762dec75e2c5b3ddb86763dc9dcb)  userDataDir=C:\Users\NDOREP~1\AppData\Local\Temp\scoped_dir10372_25468}  takesHeapSnapshot=true  pageLoadStrategy=normal  unhandledPromptBehavior=  databaseEnabled=false  handlesAlerts=true  version=68.0.3440.106  browserConnectionEnabled=false  nativeEvents=true  locationContextEnabled=true  cssSelectorsEnabled=true}] Session ID: d4a59d0f901696879176d7cff10eb169 expected [true] but found [false]",Regression
LoginTest,loginSuite,loginWithValidCredentials,chrome,Windows,Skipped,DR1, ," ",Regression
LoginTest,loginSuite,logoutValidations,chrome,Windows,Skipped,DR1, ," ",Regression
