Senario Name,Test Name,Method Name,Browser Name,Os Name,Test Status,Test Data Row,Link to Screen Shot,Error Log,Type
HealthCheckTests,loginTest,validateLoginUI,firefox,Windows,Skipped, , ," ",Regression
HealthCheckTests,loginTest,loginWithValidCredentials,firefox,Windows,Skipped, , ," ",Regression
