Senario Name,Test Name,Method Name,Browser Name,Os Name,Test Status,Test Data Row,Link to Screen Shot,Error Log,Type
HealthCheckTests,loginTest,validateLoginUI,chrome,Windows,Pass,DR1, ," ",Regression
HealthCheckTests,loginTest,loginWithValidCredentials,chrome,Windows,Pass,DR1, ," ",Regression
HealthCheckTests,logoutTest,loginWithValidCredentials,chrome,Windows,Pass,DR1, ," ",Regression
HealthCheckTests,logoutTest,logoutValidations,chrome,Windows,Pass,DR1, ," ",Regression
HealthCheckTests,logoutTest,reloginWithValidCredentials,chrome,Windows,Pass,DR2, ," ",Regression
HealthCheckTests,searchAlertTest,loginWithValidCredentials,chrome,Windows,Pass,DR1, ," ",Regression
HealthCheckTests,searchAlertTest,navigateToAlertManager,chrome,Windows,Pass, , ," ",Regression
HealthCheckTests,searchAlertTest,waitForTableToLoad,chrome,Windows,Pass, , ," ",Regression
HealthCheckTests,searchAlertTest,searchforAlert,chrome,Windows,Pass, , ," ",Regression
HealthCheckTests,searchAlertTest,logoutValidations,chrome,Windows,Pass,DR1, ," ",Regression
HealthCheckTests,CreateMyPerformanceAlertTest,loginWithValidCredentials,chrome,Windows,Pass,DR1, ," ",Regression
HealthCheckTests,CreateMyPerformanceAlertTest,navigateToAlertManager,chrome,Windows,Pass, , ," ",Regression
HealthCheckTests,CreateMyPerformanceAlertTest,create_MyPerf_SEMKW_DateD_FreqD_Checked,chrome,Windows,Pass,MyPerf, ," ",Regression
HealthCheckTests,CreateMyPerformanceAlertTest,logoutValidations,chrome,Windows,Pass,DR1, ," ",Regression
HealthCheckTests,CreateNewCompetitorAlertTest,loginWithValidCredentials,chrome,Windows,Pass,DR1, ," ",Regression
HealthCheckTests,CreateNewCompetitorAlertTest,navigateToAlertManager,chrome,Windows,Pass, , ," ",Regression
HealthCheckTests,CreateNewCompetitorAlertTest,create_NewComp_SEMCamp_DateW_FreqD_Checked,chrome,Windows,Pass,NewComp, ," ",Regression
HealthCheckTests,CreateNewCompetitorAlertTest,logoutValidations,chrome,Windows,Pass,DR1, ," ",Regression
HealthCheckTests,CreateSpecificCompetitorAlertTest,loginWithValidCredentials,chrome,Windows,Pass,DR1, ," ",Regression
HealthCheckTests,CreateSpecificCompetitorAlertTest,navigateToAlertManager,chrome,Windows,Pass, , ," ",Regression
HealthCheckTests,CreateSpecificCompetitorAlertTest,create_SpecComp_SEML_DateM_FreqW_Unchecked,chrome,Windows,Pass,SpecComp, ," ",Regression
HealthCheckTests,CreateSpecificCompetitorAlertTest,logoutValidations,chrome,Windows,Pass,DR1, ," ",Regression
HealthCheckTests,CreatePerformanceComparisonAlertTest,loginWithValidCredentials,chrome,Windows,Pass,DR1, ," ",Regression
HealthCheckTests,CreatePerformanceComparisonAlertTest,navigateToAlertManager,chrome,Windows,Pass, , ," ",Regression
HealthCheckTests,CreatePerformanceComparisonAlertTest,create_PerfComp_PLAKW_DateW_FreqW_Unchecked,chrome,Windows,Pass,PerfComp, ," ",Regression
HealthCheckTests,CreatePerformanceComparisonAlertTest,logoutValidations,chrome,Windows,Pass,DR1, ," ",Regression
HealthCheckTests,CreateNewInfringersAlertTest,loginWithValidCredentials,chrome,Windows,Pass,DR1, ," ",Regression
HealthCheckTests,CreateNewInfringersAlertTest,navigateToAlertManager,chrome,Windows,Pass, , ," ",Regression
HealthCheckTests,CreateNewInfringersAlertTest,create_NewInfri_Brand_DateD_FreqD_Checked,chrome,Windows,Pass,NewInfri, ," ",Regression
HealthCheckTests,CreateNewInfringersAlertTest,logoutValidations,chrome,Windows,Pass,DR1, ," ",Regression
HealthCheckTests,CreateBiddingPositionAlertTest,loginWithValidCredentials,chrome,Windows,Pass,DR1, ," ",Regression
HealthCheckTests,CreateBiddingPositionAlertTest,navigateToAlertManager,chrome,Windows,Pass, , ," ",Regression
HealthCheckTests,CreateBiddingPositionAlertTest,create_BiddPos_KW_DateM_FreqD_Unchecked,chrome,Windows,Pass,Bidding, ," ",Regression
HealthCheckTests,CreateBiddingPositionAlertTest,logoutValidations,chrome,Windows,Pass,DR1, ," ",Regression
HealthCheckTests,verifyAlertPermissionsTest,loginWithValidCredentials,chrome,Windows,Pass,DR1, ," ",Regression
HealthCheckTests,verifyAlertPermissionsTest,verifyAlertCreatorPermission,chrome,Windows,Pass, , ," ",Regression
HealthCheckTests,verifyAlertPermissionsTest,logoutValidations,chrome,Windows,Pass,DR1, ," ",Regression
HealthCheckTests,verifyAlertPermissionsTest,reloginWithValidCredentials,chrome,Windows,Pass,DR2, ," ",Regression
HealthCheckTests,verifyAlertPermissionsTest,verifyAlertSharedPermission,chrome,Windows,Pass, , ," ",Regression
HealthCheckTests,verifyEditAlertDisableEnableDeleteTest,loginWithValidCredentials,chrome,Windows,Pass,DR1, ," ",Regression
HealthCheckTests,verifyEditAlertDisableEnableDeleteTest,navigateToAlertManager,chrome,Windows,Pass, , ," ",Regression
HealthCheckTests,verifyEditAlertDisableEnableDeleteTest,waitForTableToLoad,chrome,Windows,Pass, , ," ",Regression
HealthCheckTests,verifyEditAlertDisableEnableDeleteTest,searchforAlert,chrome,Windows,Pass, , ," ",Regression
HealthCheckTests,verifyEditAlertDisableEnableDeleteTest,verifyEditAlertDisableEnable,chrome,Windows,Pass,DR1, ," ",Regression
HealthCheckTests,verifyEditAlertDisableEnableDeleteTest,verifyEditAlertDelete,chrome,Windows,Pass,DR1, ," ",Regression
HealthCheckTests,verifyEditAlertDisableEnableDeleteTest,logoutValidations,chrome,Windows,Pass,DR1, ," ",Regression
HealthCheckTests,verifyAccountSwitchTest,loginWithValidCredentials,chrome,Windows,Pass,DR1, ," ",Regression
HealthCheckTests,verifyAccountSwitchTest,switchAccountValidation,chrome,Windows,Pass,DR1, ," ",Regression
HealthCheckTests,verifyAccountSwitchTest,logoutValidations,chrome,Windows,Pass,DR1, ," ",Regression
