Senario Name,Test Name,Method Name,Browser Name,Os Name,Test Status,Test Data Row,Link to Screen Shot,Error Log,Type
CreateTMSubscriptionsTest,Create_TM_HijackedURL,loginWithValidCredentials,chrome,Windows,Pass,DR1, ," ",Regression
CreateTMSubscriptionsTest,Create_TM_HijackedURL,Create_TM_HijackedURL,chrome,Windows,Fail,TM_HijackedURL,file://C:/Users/ndorepalli/git/Adgooroo_I3B/ScreenShots/CreateTMSubscriptionsTest_Create_TM_HijackedURL_Create_TM_HijackedURL_Windows_chrome.png,"java.lang.AssertionError: Test case failed due to exception no such element: Unable to locate element: {""method"":""name"" ""selector"":""advertiser""}   (Session info: chrome=67.0.3396.99)   (Driver info: chromedriver=2.38.552522 (437e6fbedfa8762dec75e2c5b3ddb86763dc9dcb) platform=Windows NT 6.1.7601 SP1 x86_64) (WARNING: The server did not provide any stacktrace information) Command duration or timeout: 0 milliseconds For documentation on this error  please visit: http://seleniumhq.org/exceptions/no_such_element.html Build info: version: '3.5.3'  revision: 'a88d25fe6b'  time: '2017-08-29T12:42:44.417Z' System info: host: 'IM-LP-595'  ip: '10.68.1.100'  os.name: 'Windows 7'  os.arch: 'amd64'  os.version: '6.1'  java.version: '1.8.0_121' Driver info: org.openqa.selenium.chrome.ChromeDriver Capabilities [{mobileEmulationEnabled=false  hasTouchScreen=false  platform=XP  acceptSslCerts=false  acceptInsecureCerts=false  webStorageEnabled=true  browserName=chrome  takesScreenshot=true  javascriptEnabled=true  platformName=XP  setWindowRect=true  unexpectedAlertBehaviour=  applicationCacheEnabled=false  rotatable=false  networkConnectionEnabled=false  chrome={chromedriverVersion=2.38.552522 (437e6fbedfa8762dec75e2c5b3ddb86763dc9dcb)  userDataDir=C:\Users\NDOREP~1\AppData\Local\Temp\scoped_dir11836_17480}  takesHeapSnapshot=true  pageLoadStrategy=normal  unhandledPromptBehavior=  databaseEnabled=false  handlesAlerts=true  version=67.0.3396.99  browserConnectionEnabled=false  nativeEvents=true  locationContextEnabled=true  cssSelectorsEnabled=true}] Session ID: fec6563e673328f6cf760d2bbc1c7e05 *** Element info: {Using=name  value=advertiser} expected [true] but found [false]",Regression
CreateTMSubscriptionsTest,Create_TM_HijackedURL,logoutValidations,chrome,Windows,Pass,DR1, ," ",Regression
