Senario Name,Test Name,Method Name,Browser Name,Os Name,Test Status,Test Data Row,Link to Screen Shot,Error Log,Type
CreateSEMSubscriptionsTest,Create_SEM_AdvertiserComparison,loginWithValidCredentials,firefox,Windows,Pass,DR1, ," ",Regression
CreateSEMSubscriptionsTest,Create_SEM_AdvertiserComparison,loginWithValidCredentials,firefox,Windows,Pass,DR1, ," ",Regression
CreateSEMSubscriptionsTest,Create_SEM_GroupKeywords,loginWithValidCredentials,firefox,Windows,Pass,DR1, ," ",Regression
CreateSEMSubscriptionsTest,Create_SEM_AdvertiserComparison,Create_SEM_AdvertiserComparison,firefox,Windows,Fail,SEM_AdvertiserComparison,file://C:/Users/ndorepalli/git/Adgooroo_I3B/ScreenShots/CreateSEMSubscriptionsTest_Create_SEM_AdvertiserComparison_Create_SEM_AdvertiserComparison_Windows_firefox.png,"java.lang.AssertionError: expected [true] but found [false]",Regression
CreateSEMSubscriptionsTest,Create_SEM_AdvertiserComparison,logoutValidations,firefox,Windows,Pass,DR1, ," ",Regression
CreateSEMSubscriptionsTest,Create_SEM_GroupKeywords,Create_SEM_GroupKeywords,firefox,Windows,Fail,SEM_GroupKeywords,file://C:/Users/ndorepalli/git/Adgooroo_I3B/ScreenShots/CreateSEMSubscriptionsTest_Create_SEM_GroupKeywords_Create_SEM_GroupKeywords_Windows_firefox.png,"java.lang.AssertionError: expected [true] but found [false]",Regression
CreateSEMSubscriptionsTest,Create_SEM_GroupKeywords,logoutValidations,firefox,Windows,Pass,DR1, ," ",Regression
CreateSEMSubscriptionsTest,Create_SEM_PPCvsNatural,Create_SEM_PPCvsNatural,firefox,Windows,Fail,SEM_PPCvsNatural,file://C:/Users/ndorepalli/git/Adgooroo_I3B/ScreenShots/CreateSEMSubscriptionsTest_Create_SEM_PPCvsNatural_Create_SEM_PPCvsNatural_Windows_firefox.png,"java.lang.AssertionError: Test case failed due to exception Unable to locate element: //span[contains(@class 'previewLabel')][text()='Advertiser 1:']/parent::li[text()='amazon.com'] For documentation on this error  please visit: http://seleniumhq.org/exceptions/no_such_element.html Build info: version: '3.5.3'  revision: 'a88d25fe6b'  time: '2017-08-29T12:42:44.417Z' System info: host: 'IM-LP-595'  ip: '10.68.1.101'  os.name: 'Windows 7'  os.arch: 'amd64'  os.version: '6.1'  java.version: '1.8.0_121' Driver info: org.openqa.selenium.firefox.FirefoxDriver Capabilities [{moz:profile=C:\Users\ndorepalli\AppData\Local\Temp\rust_mozprofile.Sg2hD69akpqf  rotatable=false  timeouts={implicit=0  pageLoad=300000  script=30000}  pageLoadStrategy=normal  moz:headless=false  platform=XP  moz:accessibilityChecks=false  acceptInsecureCerts=true  browserVersion=57.0  platformVersion=6.1  moz:processID=15680  browserName=firefox  javascriptEnabled=true  platformName=XP  moz:webdriverClick=false}] Session ID: f7262c97-c2e7-4de9-b250-653a49a9d3e4 *** Element info: {Using=xpath  value=//span[contains(@class 'previewLabel')][text()='Advertiser 1:']/parent::li[text()='amazon.com']} expected [true] but found [false]",Regression
CreateSEMSubscriptionsTest,Create_SEM_PPCvsNatural,logoutValidations,firefox,Windows,Pass,DR1, ," ",Regression
CreateSEMSubscriptionsTest,Create_SEM_PositionShare,loginWithValidCredentials,firefox,Windows,Pass,DR1, ," ",Regression
CreateSEMSubscriptionsTest,Create_SEM_PositionShare,Create_SEM_PositionShare,firefox,Windows,Pass,SEM_PositionShare, ," ",Regression
CreateSEMSubscriptionsTest,Create_SEM_PositionShare,logoutValidations,firefox,Windows,Pass,DR1, ," ",Regression
