Senario Name,Test Name,Method Name,Browser Name,Os Name,Test Status,Test Data Row,Link to Screen Shot,Error Log,Type
CreateSEMSubscriptionsTest,Create_SEM_GroupOverview,loginWithValidCredentials,chrome,Windows,Fail,DR1,file://C:/Users/ndorepalli/git/Adgooroo_I3B/ScreenShots/CreateSEMSubscriptionsTest_Create_SEM_GroupOverview_loginWithValidCredentials_Windows_chrome.png,"java.lang.AssertionError: Test case failed due to exception Failed: to enter input text null expected [true] but found [false]",Regression
CreateSEMSubscriptionsTest,Create_SEM_GroupOverview,Create_SEM_GroupOverview,chrome,Windows,Skipped,DR1, ," ",Regression
CreateSEMSubscriptionsTest,Create_SEM_GroupOverview,logoutValidations,chrome,Windows,Skipped,DR1, ," ",Regression
