Senario Name,Test Name,Method Name,Browser Name,Os Name,Test Status,Test Data Row,Link to Screen Shot,Error Log,Type
HealthCheckTests,CreateBiddingPositionAlertTest,loginWithValidCredentials,chrome,Windows,Pass,DR1, ," ",Regression
HealthCheckTests,CreateBiddingPositionAlertTest,navigateToAlertManager,chrome,Windows,Pass, , ," ",Regression
HealthCheckTests,CreateBiddingPositionAlertTest,create_BiddPos_KW_DateM_FreqD_Unchecked,chrome,Windows,Fail,Bidding,file://E:/Sel_Automation/AdGooRoo/ScreenShots/HealthCheckTests_CreateBiddingPositionAlertTest_create_BiddPos_KW_DateM_FreqD_Unchecked_Windows_chrome.png,"java.lang.AssertionError: expected [0.1] but found [7.9]",Regression
