Senario Name,Test Name,Method Name,Browser Name,Os Name,Test Status,Test Data Row,Link to Screen Shot,Error Log,Type
CreatePLASubscriptionsTest,Create_PLA_KeywordResearch,loginWithValidCredentials,firefox,Windows,Skipped, , ," ",Regression
CreatePLASubscriptionsTest,Create_PLA_KeywordResearch,loginWithValidCredentials,firefox,Windows,Skipped, , ," ",Regression
CreatePLASubscriptionsTest,Create_PLA_Groupadvertisers,Create_PLA_Groupadvertisers,firefox,Windows,Skipped, , ," ",Regression
CreatePLASubscriptionsTest,Create_PLA_Groupoverview,loginWithValidCredentials,firefox,Windows,Skipped, , ," ",Regression
CreatePLASubscriptionsTest,Create_PLA_Groupadvertisers,Create_PLA_Groupadvertisers,firefox,Windows,Skipped, , ," ",Regression
CreatePLASubscriptionsTest,Create_PLA_Groupadvertisers,logoutValidations,firefox,Windows,Skipped, , ," ",Regression
CreatePLASubscriptionsTest,Create_PLA_Groupoverview,Create_PLA_Groupoverview,firefox,Windows,Skipped, , ," ",Regression
CreatePLASubscriptionsTest,Create_PLA_Groupoverview,logoutValidations,firefox,Windows,Skipped, , ," ",Regression
CreatePLASubscriptionsTest,Create_PLA_Groupoverview,logoutValidations,firefox,Windows,Skipped, , ," ",Regression
CreatePLASubscriptionsTest,Create_PLA_Groupkeywords,loginWithValidCredentials,firefox,Windows,Skipped, , ," ",Regression
CreatePLASubscriptionsTest,Create_PLA_Groupkeywords,Create_PLA_Groupkeywords,firefox,Windows,Skipped, , ," ",Regression
CreatePLASubscriptionsTest,Create_PLA_Groupkeywords,logoutValidations,firefox,Windows,Skipped, , ," ",Regression
CreatePLASubscriptionsTest,Create_PLA_Groupcreative,loginWithValidCredentials,firefox,Windows,Skipped, , ," ",Regression
CreatePLASubscriptionsTest,Create_PLA_Groupcreative,Create_PLA_Groupcreative,firefox,Windows,Skipped, , ," ",Regression
CreatePLASubscriptionsTest,Create_PLA_Keywordopportunities,loginWithValidCredentials,firefox,Windows,Skipped, , ," ",Regression
CreatePLASubscriptionsTest,Create_PLA_Groupcreative,logoutValidations,firefox,Windows,Skipped, , ," ",Regression
CreatePLASubscriptionsTest,Create_PLA_Groupcreative,logoutValidations,firefox,Windows,Skipped, , ," ",Regression
CreatePLASubscriptionsTest,Create_PLA_Keywordopportunities,logoutValidations,firefox,Windows,Skipped, , ," ",Regression
CreatePLASubscriptionsTest,Create_PLA_MultiGroupcomparison,loginWithValidCredentials,firefox,Windows,Skipped, , ," ",Regression
CreatePLASubscriptionsTest,Create_PLA_MultiGroupcomparison,Create_PLA_MultiGroupcomparison,firefox,Windows,Skipped, , ," ",Regression
CreatePLASubscriptionsTest,Create_PLA_MultiGroupcomparison,logoutValidations,firefox,Windows,Skipped, , ," ",Regression
CreatePLASubscriptionsTest,Create_PLA_Advertiserkeywords,loginWithValidCredentials,firefox,Windows,Skipped, , ," ",Regression
CreatePLASubscriptionsTest,Create_PLA_Advertiserkeywords,Create_PLA_Advertiserkeywords,firefox,Windows,Skipped, , ," ",Regression
CreatePLASubscriptionsTest,Create_PLA_Advertiserkeywords,logoutValidations,firefox,Windows,Skipped, , ," ",Regression
CreatePLASubscriptionsTest,Create_PLA_Advertiseroverview,loginWithValidCredentials,firefox,Windows,Skipped, , ," ",Regression
CreatePLASubscriptionsTest,Create_PLA_Advertiseroverview,Create_PLA_Advertiseroverview,firefox,Windows,Skipped, , ," ",Regression
CreatePLASubscriptionsTest,Create_PLA_Advertiseroverview,logoutValidations,firefox,Windows,Skipped, , ," ",Regression
CreatePLASubscriptionsTest,Create_PLA_Advertisercreative,loginWithValidCredentials,firefox,Windows,Skipped, , ," ",Regression
CreatePLASubscriptionsTest,Create_PLA_Advertisercreative,Create_PLA_Advertisercreative,firefox,Windows,Skipped, , ," ",Regression
CreatePLASubscriptionsTest,Create_PLA_Advertisercreative,logoutValidations,firefox,Windows,Skipped, , ," ",Regression
CreatePLASubscriptionsTest,Create_PLA_Advertisercomparison,loginWithValidCredentials,firefox,Windows,Skipped, , ," ",Regression
CreatePLASubscriptionsTest,Create_PLA_Advertisercomparison,Create_PLA_Advertisercomparison,firefox,Windows,Skipped, , ," ",Regression
CreatePLASubscriptionsTest,Create_PLA_Advertisercomparison,logoutValidations,firefox,Windows,Skipped, , ," ",Regression
CreatePLASubscriptionsTest,Create_PLA_Keywordcomparison,loginWithValidCredentials,firefox,Windows,Skipped, , ," ",Regression
CreatePLASubscriptionsTest,Create_PLA_Keywordcomparison,Create_PLA_Keywordcomparison,firefox,Windows,Skipped, , ," ",Regression
CreatePLASubscriptionsTest,Create_PLA_Keywordcomparison,logoutValidations,firefox,Windows,Skipped, , ," ",Regression
CreatePLASubscriptionsTest,Create_PLA_Keywordadvertisers,loginWithValidCredentials,firefox,Windows,Skipped, , ," ",Regression
CreatePLASubscriptionsTest,Create_PLA_Keywordadvertisers,Create_PLA_Keywordadvertisers,firefox,Windows,Skipped, , ," ",Regression
CreatePLASubscriptionsTest,Create_PLA_Keywordadvertisers,logoutValidations,firefox,Windows,Skipped, , ," ",Regression
CreatePLASubscriptionsTest,Create_PLA_Keywordcreative,loginWithValidCredentials,firefox,Windows,Skipped, , ," ",Regression
CreatePLASubscriptionsTest,Create_PLA_Keywordcreative,Create_PLA_Keywordcreative,firefox,Windows,Skipped, , ," ",Regression
CreatePLASubscriptionsTest,Create_PLA_Keywordcreative,logoutValidations,firefox,Windows,Skipped, , ," ",Regression
CreatePLASubscriptionsTest,Create_PLA_Keywordoverview,loginWithValidCredentials,firefox,Windows,Skipped, , ," ",Regression
CreatePLASubscriptionsTest,Create_PLA_Keywordoverview,Create_PLA_Keywordoverview,firefox,Windows,Skipped, , ," ",Regression
CreatePLASubscriptionsTest,Create_PLA_Keywordoverview,logoutValidations,firefox,Windows,Skipped, , ," ",Regression
