Senario Name,Test Name,Method Name,Browser Name,Os Name,Test Status,Test Data Row,Link to Screen Shot,Error Log,Type
LoginTest,loginSuite,validateLoginUI,chrome,Windows,Pass,DR1, ," ",Regression
LoginTest,loginSuite,loginWithValidCredentials,chrome,Windows,Pass,DR1, ," ",Regression
LoginTest,loginSuite,logoutValidations,chrome,Windows,Pass,DR1, ," ",Regression
