Senario Name,Test Name,Method Name,Browser Name,Os Name,Test Status,Test Data Row,Link to Screen Shot,Error Log,Type
CreateSEMSubscriptionsTest,Create_SEM_PPCvsNatural,loginWithValidCredentials,chrome,Windows,Pass,DR1, ," ",Regression
CreateSEMSubscriptionsTest,Create_SEM_PPCvsNatural,Create_SEM_PPCvsNatural,chrome,Windows,Fail,SEM_PPCvsNatural,file://C:/Users/ndorepalli/git/Adgooroo_I3B/ScreenShots/CreateSEMSubscriptionsTest_Create_SEM_PPCvsNatural_Create_SEM_PPCvsNatural_Windows_chrome.png,"java.lang.AssertionError: Validation for subscription created success message expected [Successfully created auto_SEM_PPCvsNatural_healthcheck_180807121546!] but found []",Regression
CreateSEMSubscriptionsTest,Create_SEM_PPCvsNatural,logoutValidations,chrome,Windows,Pass,DR1, ," ",Regression
