Senario Name,Test Name,Method Name,Browser Name,Os Name,Test Status,Test Data Row,Link to Screen Shot,Error Log,Type
CreateLocalSubscriptionsTest,Create_Local_KeywordAdvertisers,loginWithValidCredentials,firefox,Windows,Pass,DR1, ," ",Regression
CreateLocalSubscriptionsTest,Create_Local_MultiCityKeywords,loginWithValidCredentials,firefox,Windows,Pass,DR1, ," ",Regression
CreateLocalSubscriptionsTest,Create_Local_KeywordCreative,loginWithValidCredentials,firefox,Windows,Pass,DR1, ," ",Regression
CreateLocalSubscriptionsTest,Create_Local_KeywordAdvertisers,Create_Local_KeywordAdvertisers,firefox,Windows,Pass,Local_KeywordAdvertisers, ," ",Regression
CreateLocalSubscriptionsTest,Create_Local_KeywordCreative,Create_Local_KeywordCreative,firefox,Windows,Pass,Local_KeywordCreative, ," ",Regression
CreateLocalSubscriptionsTest,Create_Local_MultiCityKeywords,Create_Local_MultiCityKeywords,firefox,Windows,Pass,Local_MultiCityKeywords, ," ",Regression
CreateLocalSubscriptionsTest,Create_Local_KeywordAdvertisers,logoutValidations,firefox,Windows,Pass,DR1, ," ",Regression
CreateLocalSubscriptionsTest,Create_Local_KeywordCreative,logoutValidations,firefox,Windows,Pass,DR1, ," ",Regression
CreateLocalSubscriptionsTest,Create_Local_MultiCityKeywords,logoutValidations,firefox,Windows,Pass,DR1, ," ",Regression
CreateLocalSubscriptionsTest,Create_Local_KeywordOverview,loginWithValidCredentials,firefox,Windows,Pass,DR1, ," ",Regression
CreateLocalSubscriptionsTest,Create_Local_PositionShare,loginWithValidCredentials,firefox,Windows,Pass,DR1, ," ",Regression
CreateLocalSubscriptionsTest,Create_Local_PositionShare,Create_Local_PositionShare,firefox,Windows,Pass,Local_PositionShare, ," ",Regression
CreateLocalSubscriptionsTest,Create_Local_KeywordOverview,Create_Local_KeywordOverview,firefox,Windows,Pass,Local_KeywordOverview, ," ",Regression
CreateLocalSubscriptionsTest,Create_Local_PositionShare,logoutValidations,firefox,Windows,Pass,DR1, ," ",Regression
CreateLocalSubscriptionsTest,Create_Local_KeywordOverview,logoutValidations,firefox,Windows,Pass,DR1, ," ",Regression
