Senario Name,Test Name,Method Name,Browser Name,Os Name,Test Status,Test Data Row,Link to Screen Shot,Error Log,Type
HealthCheckTests,CreateSpecificCompetitorAlertTest,loginWithValidCredentials,chrome,Windows,Pass,DR1, ," ",Regression
HealthCheckTests,CreateSpecificCompetitorAlertTest,navigateToAlertManager,chrome,Windows,Pass, , ," ",Regression
HealthCheckTests,CreateSpecificCompetitorAlertTest,create_SpecComp_SEML_DateM_FreqW_Unchecked,chrome,Windows,Fail,SpecComp,file://E:/Sel_Automation/AdGooRoo/ScreenShots/HealthCheckTests_CreateSpecificCompetitorAlertTest_create_SpecComp_SEML_DateM_FreqW_Unchecked_Windows_chrome.png,"java.lang.AssertionError: Test case failed due to exception no such element: Unable to locate element: {""method"":""xpath"" ""selector"":""//option[text()='Columbus   OH - Google US']""}   (Session info: chrome=64.0.3282.167)   (Driver info: chromedriver=2.34.522940 (1a76f96f66e3ca7b8e57d503b4dd3bccfba87af1) platform=Windows NT 6.1.7601 SP1 x86_64) (WARNING: The server did not provide any stacktrace information) Command duration or timeout: 0 milliseconds For documentation on this error  please visit: http://seleniumhq.org/exceptions/no_such_element.html Build info: version: '3.5.3'  revision: 'a88d25fe6b'  time: '2017-08-29T12:42:44.417Z' System info: host: 'IM-LP-374'  ip: '10.68.1.100'  os.name: 'Windows 7'  os.arch: 'x86'  os.version: '6.1'  java.version: '1.8.0_144' Driver info: org.openqa.selenium.chrome.ChromeDriver Capabilities [{mobileEmulationEnabled=false  hasTouchScreen=false  platform=XP  acceptSslCerts=true  webStorageEnabled=true  browserName=chrome  takesScreenshot=true  javascriptEnabled=true  platformName=XP  setWindowRect=true  unexpectedAlertBehaviour=  applicationCacheEnabled=false  rotatable=false  networkConnectionEnabled=false  chrome={chromedriverVersion=2.34.522940 (1a76f96f66e3ca7b8e57d503b4dd3bccfba87af1)  userDataDir=C:\Users\sshivam\AppData\Local\Temp\scoped_dir17832_17220}  takesHeapSnapshot=true  pageLoadStrategy=normal  unhandledPromptBehavior=  databaseEnabled=false  handlesAlerts=true  version=64.0.3282.167  browserConnectionEnabled=false  nativeEvents=true  locationContextEnabled=true  cssSelectorsEnabled=true}] Session ID: f154481ff2562aee1a8342a1cfc31a86 *** Element info: {Using=xpath  value=//option[text()='Columbus   OH - Google US']} expected [true] but found [false]",Regression
HealthCheckTests,CreateSpecificCompetitorAlertTest,logoutValidations,chrome,Windows,Pass,DR1, ," ",Regression
